Data_Harvesting_Lyrics_ES_DE_TR
…
Clean and Format the Final Results

top_artists_german_tracks <- top_artists_german %>%
  select(artist_name = name, artist_popularity = popularity, 
         followers, top_tracks) %>%
  unnest(cols = top_tracks)

top_artists_german_tracks <- top_artists_german_tracks %>%
  filter(!artist_name %in% c("Morad", "Rvfv"))

print(top_artists_german_tracks)

# A tibble: 30 × 5
   artist_name artist_popularity followers track_name         track_popularity
   <chr>                   <dbl>     <dbl> <chr>                         <dbl>
 1 Bonez MC                   76   2323190 Toyota (2016)                    68
 2 Bonez MC                   76   2323190 Ohne mein Team                   67
 3 Bonez MC                   76   2323190 Blaues Licht                     65
 4 Bonez MC                   76   2323190 Extasy                           61
 5 Bonez MC                   76   2323190 Palmen aus Plastik               65
 6 Luciano                    75   2394883 Butcher                          71
 7 Luciano                    75   2394883 PLAYBOYBUNNIES                   71
 8 Luciano                    75   2394883 Gesegnet                         70
 9 Luciano                    75   2394883 Cold as Ice                      69
10 Luciano                    75   2394883 Starboy                          68
# ℹ 20 more rows
…
No Genius match found for: Ufo361 - RED CUPS (feat. Paula Hartmann)

No suitable match found for: Gzuz - G Wagon

Found best match Genius URL: https://genius.com/Gzuz-alles-zu-seiner-zeit-lyrics

Found best match Genius URL: https://genius.com/Hector-el-father-ombe-no-lyrics

Found best match Genius URL: https://genius.com/Gzuz-druck-druck-lyrics

Found best match Genius URL: https://genius.com/Gzuz-hinterher-lyrics

print(top_artists_german_tracks %>% select(artist_name, track_name, genius_url, genius_id))

# A tibble: 24 × 4
   artist_name track_name            genius_url                        genius_id
   <chr>       <chr>                 <chr>                                 <int>
 1 Bonez MC    Toyota (2016)         https://genius.com/Oso-oso-frees…   4157141
 2 Bonez MC    Ohne mein Team        https://genius.com/Bonez-mc-wenn…  10120798
 3 Bonez MC    Blaues Licht          https://genius.com/Bonez-mc-and-…   8174131
 4 Bonez MC    Extasy                https://genius.com/Bonez-mc-raf-…   3920005
 5 Bonez MC    Palmen aus Plastik    https://genius.com/Bonez-mc-and-…   2853616
 6 Luciano     Butcher               https://genius.com/Asake-amapian…   9153519
 7 Luciano     Gesegnet              https://genius.com/Mucco-on-ma-w…  10891103
 8 Luciano     Cold as Ice           https://genius.com/Bastardo-loca…   2972915
 9 Luciano     Starboy               https://genius.com/Mucco-on-ma-w…  10891103
10 Jazeek      Wenn der Himmel weint https://genius.com/Nazar-ossi-o-…    101210
# ℹ 14 more rows
…
    return(lyrics)
  }, error = function(e) {
    message(paste("Error scraping lyrics for:", song_url))
    return(NA)
  })
}

top_artists_german_tracks <- top_artists_german_tracks %>%
  mutate(lyrics  = map_chr(genius_url , get_genius_lyrics ))

View and Save Final Dataset

print(top_artists_german_tracks  %>% select(artist_name, track_name , genius_url , genius_id , lyrics ))

# A tibble: 24 × 5
   artist_name track_name            genius_url                 genius_id lyrics
   <chr>       <chr>                 <chr>                          <int> <chr> 
 1 Bonez MC    Toyota (2016)         https://genius.com/Oso-os…   4157141 "MY S…
 2 Bonez MC    Ohne mein Team        https://genius.com/Bonez-…  10120798 "[Son…
 3 Bonez MC    Blaues Licht          https://genius.com/Bonez-…   8174131 "[Son…
 4 Bonez MC    Extasy                https://genius.com/Bonez-…   3920005 "[Son…
 5 Bonez MC    Palmen aus Plastik    https://genius.com/Bonez-…   2853616 "[Son…
 6 Luciano     Butcher               https://genius.com/Asake-…   9153519 "[Int…
 7 Luciano     Gesegnet              https://genius.com/Mucco-…  10891103 "[Son…
 8 Luciano     Cold as Ice           https://genius.com/Bastar…   2972915 "RIT.…
 9 Luciano     Starboy               https://genius.com/Mucco-…  10891103 "[Son…
10 Jazeek      Wenn der Himmel weint https://genius.com/Nazar-…    101210 "N-a-…
# ℹ 14 more rows
…
# **Combine standard + custom stopwords**
all_stopwords <- unique(c(spanish_stops, custom_stopwords))

# **Tokenize, remove stopwords, and count word frequency**
word_freq_es <- top_artists_tracks_es_atomic %>%
  filter(!is.na(lyrics_es) & lyrics_es != "") %>%  # Remove NA + empty rows
  unnest_tokens(word, lyrics_es) %>%  # Tokenize text
  filter(!word %in% all_stopwords & word != "") %>%  # **Remove stopwords**
  count(word, sort = TRUE)  # Count word frequencies

# **Check the result**
print(word_freq_es)

# A tibble: 1,866 × 2
   word        n
   <chr>   <int>
 1 solo       30
 2 dice       26
 3 siempre    24
 4 ú          24
 5 sosa       21
 6 contigo    18
 7 jr         18
 8 não        16
 9 ver        16
10 gusta      15
# ℹ 1,856 more rows
…
word_correlation

# A tibble: 4,547,556 × 3
   item1 item2 correlation
   <chr> <chr>       <dbl>
 1 sein  war             1
 2 mach  von             1
 3 von   mach            1
 4 war   sein            1
 5 weg   geh'n           1
 6 gab   hat             1
 7 hat   gab             1
 8 geh'n weg             1
 9 mir   mich            1
10 mich  mir             1
# ℹ 4,547,546 more rows

# Filter für "Mann"
mann_correlation <- word_correlation %>%
  filter(item1 == "männer" | item2 == "mann")

print(mann_correlation)

# A tibble: 2,132 × 3
   item1     item2 correlation
   <chr>     <chr>       <dbl>
 1 z         mann            1
 2 nazar     mann            1
 3 össi      mann            1
 4 ö         mann            1
 5 startmit  mann            1
 6 mischling mann            1
 7 kanacken  mann            1
 8 weißenein mann            1
 9 verbaler  mann            1
10 uppercut  mann            1
# ℹ 2,122 more rows
…
